{
  "employees": [
    {
      "id": 1,
      "first_name": "John",
      "last_name": "Smith",
      "date_of_birth": "01/02/1990",
      "date_hired": "09/08/2018",
      "employment_status": 1
    },
    {
      "id": 2,
      "first_name": "Justine",
      "last_name": "Henderson",
      "date_of_birth": "01/02/1980",
      "date_hired": "01/08/2018",
      "employment_status": 1
    },
    {
      "id": 3,
      "first_name": "Alfred",
      "last_name": "McDonald",
      "date_of_birth": "04/10/1996",
      "date_hired": "14/04/2016",
      "employment_status": 2
    },
    {
      "id": 4,
      "first_name": "Norman",
      "last_name": "Jones",
      "date_of_birth": "22/11/1998",
      "date_hired": "01/04/2019",
      "employment_status": 3
    }
  ],
  "employment_statuses": [
    {
      "id": 1,
      "name": "Active",
      "colour": "#78D363"
    },
    {
      "id": 2,
      "name": "Inactive",
      "colour": "#AAAAAA"
    },
    {
      "id": 3,
      "name": "Pending",
      "colour": "#4190CB"
    }
  ]
}
